NOBEL WINNERS
…
Nom complet des gagnats par catgorie (nombre de prix)

Commentaire: Trois prix en catgorie paix par la comit international de la Croix rouge. Deux prix en chimie par Frederick Sanger. Deux prix en physique par John Bardeen et ainsi de suite.

nobel_winners %>%
  distinct(full_name, prize_year, category) %>%
  group_by(full_name) %>%
  mutate(prizes = n(),
         distinct_prizes = n_distinct(category)) %>%
  arrange(desc(prizes), full_name)

## # A tibble: 911 x 5
## # Groups:   full_name [904]
##    prize_year category  full_name                         prizes distinct_prizes
##         <dbl> <chr>     <chr>                              <int>           <int>
##  1       1917 Peace     Comit international de la Croix~      3               1
##  2       1944 Peace     Comit international de la Croix~      3               1
##  3       1963 Peace     Comit international de la Croix~      3               1
##  4       1958 Chemistry Frederick Sanger                       2               1
##  5       1980 Chemistry Frederick Sanger                       2               1
##  6       1956 Physics   John Bardeen                           2               1
##  7       1972 Physics   John Bardeen                           2               1
##  8       1954 Chemistry Linus Carl Pauling                     2               2
##  9       1962 Peace     Linus Carl Pauling                     2               2
## 10       1903 Physics   Marie Curie, ne Sklodowska            2               2
## # ... with 901 more rows
…
## # A tibble: 6 x 3
##   full_name                                                 prize_year category 
##   <chr>                                                          <dbl> <chr>    
## 1 Marie Curie, ne Sklodowska                                     1903 Physics  
## 2 Baroness Bertha Sophie Felicita von Suttner, ne Countes~       1905 Peace    
## 3 Selma Ottilia Lovisa Lagerlf                                   1909 Literatu~
## 4 Marie Curie, ne Sklodowska                                     1911 Chemistry
## 5 Grazia Deledda                                                  1926 Literatu~
## 6 Sigrid Undset                                                   1928 Literatu~

Il y avait 26 organisations plutt que des individus qui ont remport le prix Nobel de la paix.

nobel %>% filter(is.na(gender)) %>% select(full_name, category)

## # A tibble: 26 x 2
##    full_name                                                            category
##    <chr>                                                                <chr>   
##  1 Institut de droit international (Institute of International Law)     Peace   
##  2 Bureau international permanent de la Paix (Permanent International ~ Peace   
##  3 Comit international de la Croix Rouge (International Committee of ~ Peace   
##  4 Office international Nansen pour les Rfugis (Nansen International~ Peace   
##  5 Comit international de la Croix Rouge (International Committee of ~ Peace   
##  6 Friends Service Council (The Quakers)                                Peace   
##  7 American Friends Service Committee (The Quakers)                     Peace   
##  8 Office of the United Nations High Commissioner for Refugees (UNHCR)  Peace   
##  9 Comit international de la Croix Rouge (International Committee of ~ Peace   
## 10 Ligue des Socits de la Croix-Rouge (League of Red Cross Societies) Peace   
## # ... with 16 more rows
…
